<?xml version="1.0" encoding="utf-8"?>
<!-- Generator: Adobe Illustrator 24.0.3, SVG Export Plug-In . SVG Version: 6.00 Build 0)  -->
<svg version="1.1" id="Ebene_1" xmlns="http://www.w3.org/2000/svg" xmlns:xlink="http://www.w3.org/1999/xlink" x="0px" y="0px"
	 width="80px" height="80px" viewBox="0 0 80 80" style="enable-background:new 0 0 80 80;" xml:space="preserve">
<style type="text/css">
	.st0{fill:url(#SVGID_1_);}
	.st1{fill:url(#SVGID_2_);}
	.st2{fill:#FFFFFF;}
</style>
<g transform="translate(0 -158)">
	<g transform="translate(-2181.387 -309.341)">
		
			<linearGradient id="SVGID_1_" gradientUnits="userSpaceOnUse" x1="1924.1277" y1="880.0472" x2="1924.1368" y2="882.6968" gradientTransform="matrix(36.512 0 0 -16.501 -68032.4844 15054.5137)">
			<stop  offset="0" style="stop-color:#7CE2FF"/>
			<stop  offset="1" style="stop-color:#4CC2E3"/>
		</linearGradient>
		<path class="st0" d="M2210.4683,505.3477c6.8103,0,12.7947,2.7393,16.2207,6.8736c3.092-3.8651,7.7961-6.085,12.7454-6.0145
			c1.0063-0.0004,2.0105,0.0873,3.0017,0.2622v-10.6582c0-1.4169-1.1487-2.5656-2.5657-2.5656h-36.8577
			c-1.417,0-2.5654,1.1487-2.5654,2.5656v11.7139C2203.5864,506.0698,2207.0083,505.3264,2210.4683,505.3477z"/>
		
			<linearGradient id="SVGID_2_" gradientUnits="userSpaceOnUse" x1="1924.3411" y1="879.0065" x2="1923.7708" y2="876.9077" gradientTransform="matrix(36.5139 0 0 -14.2254 -68036.2266 13007.1094)">
			<stop  offset="0" style="stop-color:#A7E7FA"/>
			<stop  offset="1" style="stop-color:#86DEF7"/>
		</linearGradient>
		<path class="st1" d="M2226.6899,512.2155c-3.4258-4.14-9.4104-6.8735-16.2207-6.8735c-3.4612-0.0215-6.8843,0.7223-10.0247,2.1781
			v11.615c0,1.4169,1.1487,2.5657,2.5657,2.5657h36.8599c1.417,0,2.5657-1.1487,2.5657-2.5657v-12.6695
			c-0.9912-0.1748-1.9954-0.2626-3.0017-0.2622C2234.4856,506.1327,2229.7822,508.3517,2226.6899,512.2155z"/>
		<circle class="st2" cx="2229.6055" cy="501.3469" r="3.5799"/>
	</g>
</g>
</svg>
